…
``` r
data_h%>%group_by(nativecountry)%>%summarise(n()) #656
```

    ## # A tibble: 42 x 2
    ##    nativecountry         `n()`
    ##    <fct>                 <int>
    ##  1 " ?"                    656
    ##  2 " Cambodia"              21
    ##  3 " Canada"               142
    ##  4 " China"                100
    ##  5 " Columbia"              69
    ##  6 " Cuba"                 102
    ##  7 " Dominican-Republic"    76
    ##  8 " Ecuador"               36
    ##  9 " El-Salvador"          122
    ## 10 " England"               95
    ## # ... with 32 more rows
…
